{
    "definitions": {
        "example": {
            "type": "object",
            "properties": {
                "value": {
                    "type": "string"
                },
                "branches": {
                    "type": "array",
                    "items": {
                        "$ref": "#/definitions/example"
                    },
                    "minItems": 1
                }
            },
            "required": [
                "value"
            ]
        },
        "Error": {
            "type": "object",
            "properties": {
                "code": {
                    "type": "string"
                },
                "message": {
                    "type": "string"
                }
            }
        },
        "MailinglistPostModel": {
            "type": "object",
            "properties": {
                "title": {
                    "type": "string",
                    "description": "Email title"
                },
                "date": {
                    "type": "string",
                    "format": "date",
                    "description": "Email date"
                }
            }
        },
        "InReplyBlock": {
            "type": "object",
            "properties": {
                "block_id": {
                    "type": "string"
                },
                "code_before": {
                    "type": "string"
                },
                "code-after": {
                    "type": "string"
                },
                "comment": {
                    "type": "string"
                },
                "in_reply_to_block": {
                    "$ref": "#/definitions/InReplyBlock"
                }
            }
        },
        "EmailRaw": {
            "$schema": "http://json-schema.org/draft-04/schema#",
            "type": "object",
            "properties": {
                "title": {
                    "type": "string"
                },
                "date": {
                    "type": "string"
                },
                "from": {
                    "type": "object",
                    "properties": {
                        "email": {
                            "type": "string"
                        }
                    },
                    "required": [
                        "email"
                    ]
                },
                "to": {
                    "type": "array",
                    "items": {
                        "type": "object",
                        "properties": {
                            "email": {
                                "type": "string"
                            }
                        },
                        "required": [
                            "email"
                        ]
                    }
                },
                "cc": {
                    "type": "array",
                    "items": {
                        "type": "string"
                    }
                },
                "bcc": {
                    "type": "array",
                    "items": {
                        "type": "string"
                    }
                },
                "body": {
                    "type": "object",
                    "properties": {
                        "raw": {
                            "type": "string"
                        }
                    }
                },
                "meta_structure": {
                    "type": "object",
                    "properties": {
                        "category": {
                            "type": "string"
                        },
                        "thread-id": {
                            "type": "string"
                        },
                        "version": {
                            "type": "string"
                        },
                        "part": {
                            "type": "string"
                        },
                        "total": {
                            "type": "string"
                        },
                        "project": {
                            "type": "string"
                        },
                        "system": {
                            "type": "string"
                        },
                        "subject": {
                            "type": "string"
                        },
                        "tags": {
                            "type": "array",
                            "items": {
                                "type": "object",
                                "properties": {
                                    "name": {
                                        "type": "string"
                                    },
                                    "value": {
                                        "type": "string"
                                    }
                                }
                            }
                        },
                        "block": {
                            "type": "array",
                            "items": {
                                "type": "object",
                                "properties": {
                                    "block_id": {
                                        "type": "string"
                                    },
                                    "code": {
                                        "type": "string"
                                    },
                                    "comment": {
                                        "type": "string"
                                    },
                                    "nlp_classification": {
                                        "type": "object"
                                    },
                                    "in_reply_to_block": {
                                        "$ref": "#/definitions/InReplyBlock"
                                    }
                                }
                            }
                        }
                    }
                }
            },
            "required": [
                "title",
                "date",
                "from",
                "to",
                "body",
                "meta_structure"
            ]
        }
    }
}