{
  "swagger": "2.0",
  "info": {
    "title": "API V1",
    "version": "v1",
    "description": "API for data respository"
  },
  "paths": {
    "/emails": {
      "get": {
        "tags": [
          "Email"
        ],
        "responses": {
          "200": {
            "description": "successful"
          }
        },
        "summary": "obtem dados raw de lista de emails"
      },
      "post": {
        "tags": [
          "Email"
        ],
        "summary": "submete um registro raw de lista de emails",
        "consumes": [
          "application/json"
        ],
        "produces": [
          "application/json"
        ],
        "responses": {
          "200": {
            "description": "Success",
            "schema": {
              "$ref": "#/definitions/Error"
            }
          },
          "500": {
            "description": "It occurs when a parametrization problem or  the application settings are incorrect.",
            "schema": {
              "$ref": "#/definitions/Error"
            }
          }
        },
        "parameters": [
          {
            "name": "body",
            "in": "body",
            "schema": {
              "$ref": "#/definitions/Unspecified"
            }
          }
        ]
      }
    },
    "/ircs": {
      "get": {
        "tags": [
          "IRC"
        ],
        "responses": {
          "200": {
            "description": "successful"
          }
        },
        "summary": "obtem dados raw de irc"
      },
      "post": {
        "tags": [
          "IRC"
        ],
        "summary": "submete um registro raw de ircs",
        "consumes": [
          "application/json"
        ],
        "produces": [
          "application/json"
        ],
        "responses": {
          "200": {
            "description": "Success",
            "schema": {
              "$ref": "#/definitions/Error"
            }
          },
          "500": {
            "description": "It occurs when a parametrization problem or  the application settings are incorrect.",
            "schema": {
              "$ref": "#/definitions/Error"
            }
          }
        },
        "parameters": [
          {
            "name": "body",
            "in": "body",
            "schema": {
              "$ref": "#/definitions/Unspecified"
            }
          }
        ]
      }
    },
    "/issues": {
      "get": {
        "tags": [
          "Issue Tracker"
        ],
        "responses": {
          "200": {
            "description": "successful"
          }
        },
        "summary": "obtem dados raw de issue tracker"
      },
      "post": {
        "tags": [
          "Issue Tracker"
        ],
        "summary": "submete um registro raw de issue tracker",
        "consumes": [
          "application/json"
        ],
        "produces": [
          "application/json"
        ],
        "responses": {
          "200": {
            "description": "Success",
            "schema": {
              "$ref": "#/definitions/Error"
            }
          },
          "500": {
            "description": "It occurs when a parametrization problem or  the application settings are incorrect.",
            "schema": {
              "$ref": "#/definitions/Error"
            }
          }
        },
        "parameters": [
          {
            "name": "body",
            "in": "body",
            "schema": {
              "$ref": "#/definitions/Unspecified"
            }
          }
        ]
      }
    },
    "/commits": {
      "get": {
        "tags": [
          "Commits"
        ],
        "responses": {
          "200": {
            "description": "successful"
          }
        },
        "summary": "obtem dados raw commits"
      },
      "post": {
        "tags": [
          "Commits"
        ],
        "summary": "submete um registro raw commit",
        "consumes": [
          "application/json"
        ],
        "produces": [
          "application/json"
        ],
        "responses": {
          "200": {
            "description": "Success",
            "schema": {
              "$ref": "#/definitions/Error"
            }
          },
          "500": {
            "description": "It occurs when a parametrization problem or  the application settings are incorrect.",
            "schema": {
              "$ref": "#/definitions/Error"
            }
          }
        },
        "parameters": [
          {
            "name": "body",
            "in": "body",
            "schema": {
              "$ref": "#/definitions/Unspecified"
            }
          }
        ]
      }
    }
  },
  "definitions": {
    "example": {
      "type": "object",
      "properties": {
        "value": {
          "type": "string"
        },
        "branches": {
          "type": "array",
          "items": {
            "$ref": "#/definitions/example"
          },
          "minItems": 1
        }
      },
      "required": [
        "value"
      ]
    },
    "Unspecified": {
      "type": "object",
      "properties": {
        "content_json": {
          "type": "string"
        }
      }
    },
    "Error": {
      "type": "object",
      "properties": {
        "code": {
          "type": "string"
        },
        "message": {
          "type": "string"
        }
      }
    },
    "MailinglistPostModel": {
      "type": "object",
      "properties": {
        "title": {
          "type": "string",
          "description": "Email title"
        },
        "date": {
          "type": "string",
          "format": "date",
          "description": "Email date"
        }
      }
    },
    "InReplyBlock": {
      "type": "object",
      "properties": {
        "block_id": {
          "type": "string"
        },
        "code_before": {
          "type": "string"
        },
        "code-after": {
          "type": "string"
        },
        "comment": {
          "type": "string"
        },
        "in_reply_to_block": {
          "$ref": "#/definitions/InReplyBlock"
        }
      }
    },
    "EmailRaw": {
      "$schema": "http://json-schema.org/draft-04/schema#",
      "type": "object",
      "properties": {
        "title": {
          "type": "string"
        },
        "date": {
          "type": "string"
        },
        "from": {
          "type": "object",
          "properties": {
            "email": {
              "type": "string"
            }
          },
          "required": [
            "email"
          ]
        },
        "to": {
          "type": "array",
          "items": {
            "type": "object",
            "properties": {
              "email": {
                "type": "string"
              }
            },
            "required": [
              "email"
            ]
          }
        },
        "cc": {
          "type": "array",
          "items": {
            "type": "string"
          }
        },
        "bcc": {
          "type": "array",
          "items": {
            "type": "string"
          }
        },
        "body": {
          "type": "object",
          "properties": {
            "raw": {
              "type": "string"
            }
          }
        },
        "meta_structure": {
          "type": "object",
          "properties": {
            "category": {
              "type": "string"
            },
            "thread-id": {
              "type": "string"
            },
            "version": {
              "type": "string"
            },
            "part": {
              "type": "string"
            },
            "total": {
              "type": "string"
            },
            "project": {
              "type": "string"
            },
            "system": {
              "type": "string"
            },
            "subject": {
              "type": "string"
            },
            "tags": {
              "type": "array",
              "items": {
                "type": "object",
                "properties": {
                  "name": {
                    "type": "string"
                  },
                  "value": {
                    "type": "string"
                  }
                }
              }
            },
            "block": {
              "type": "array",
              "items": {
                "type": "object",
                "properties": {
                  "block_id": {
                    "type": "string"
                  },
                  "code": {
                    "type": "string"
                  },
                  "comment": {
                    "type": "string"
                  },
                  "nlp_classification": {
                    "type": "object"
                  },
                  "in_reply_to_block": {
                    "$ref": "#/definitions/InReplyBlock"
                  }
                }
              }
            }
          }
        }
      },
      "required": [
        "title",
        "date",
        "from",
        "to",
        "body",
        "meta_structure"
      ]
    }
  }
}